analysis_final
…
$`MPS IIIB`
# A tibble: 209 × 8
   pathway         NGenes Direction  PValue     FDR PValue.Mixed FDR.Mixed coef 
   <chr>            <int> <chr>       <dbl>   <dbl>        <dbl>     <dbl> <chr>
 1 KEGG_LYSOSOME      116 Up        1.25e-5 1.30e-3     8.27e-15  1.73e-12 MPS …
 2 Macrophage_grn…    137 Up        7.01e-4 1.83e-2     9.70e-14  1.01e-11 MPS …
 3 KEGG_AMINO_SUG…     39 Up        2.45e-2 2.13e-1     5.22e-12  3.64e-10 MPS …
 4 KEGG_OTHER_GLY…     14 Up        1.37e-6 2.87e-4     4.29e-10  2.24e- 8 MPS …
 5 KEGG_GLYCOSPHI…     16 Up        3.17e-1 7.21e-1     5.40e- 9  2.26e- 7 MPS …
 6 Neural stem ce…    121 Down      2.22e-4 1.17e-2     1.68e- 8  5.86e- 7 MPS …
 7 KEGG_GLYCOSAMI…     20 Up        2.59e-4 1.17e-2     4.65e- 8  1.39e- 6 MPS …
 8 Microglia_apoc…     89 Down      9.78e-3 1.14e-1     9.52e- 8  2.49e- 6 MPS …
 9 Oligodendrocyt…     51 Down      4.96e-4 1.48e-2     1.71e- 7  3.96e- 6 MPS …
10 KEGG_SNARE_INT…     36 Down      3.09e-1 7.11e-1     1.95e- 6  4.08e- 5 MPS …
# ℹ 199 more rows

$`EOfAD-like`
# A tibble: 209 × 8
   pathway            NGenes Direction PValue   FDR PValue.Mixed FDR.Mixed coef 
   <chr>               <int> <chr>      <dbl> <dbl>        <dbl>     <dbl> <chr>
 1 KEGG_LYSOSOME         116 Up        0.0185 0.507       0.0107     0.847 EOfA…
 2 KEGG_STARCH_AND_S…     26 Up        0.142  0.631       0.0124     0.847 EOfA…
 3 KEGG_GLYCOSAMINOG…     20 Up        0.0149 0.507       0.0175     0.847 EOfA…
 4 KEGG_HYPERTROPHIC…     73 Down      0.0296 0.507       0.0407     0.847 EOfA…
 5 KEGG_COMPLEMENT_A…     32 Down      0.278  0.691       0.0443     0.847 EOfA…
 6 KEGG_ARACHIDONIC_…     28 Up        0.792  0.925       0.0519     0.847 EOfA…
 7 KEGG_DILATED_CARD…     80 Down      0.0293 0.507       0.0610     0.847 EOfA…
 8 KEGG_BIOSYNTHESIS…     17 Up        0.748  0.925       0.0648     0.847 EOfA…
 9 KEGG_ALANINE_ASPA…     29 Up        0.534  0.846       0.0689     0.847 EOfA…
10 KEGG_GLUTATHIONE_…     35 Up        0.0748 0.625       0.0766     0.847 EOfA…
# ℹ 199 more rows
…
