analysis_adultbrain
…
$EOfADlike_F
# A tibble: 2 × 2
  direction     n
      <dbl> <int>
1        -1    11
2         1     1

toptables_cqn_bygroup %>% lapply(dplyr::filter, DE == T)

$MPSIIIB_M
# A tibble: 353 × 17
   gene_name      logFC  logCPM   PValue      FDR DE    chromosome  start    end
   <chr>          <dbl>   <dbl>    <dbl>    <dbl> <lgl> <fct>       <int>  <int>
 1 tmem14cb      -3.10   1.62   1.12e-31 2.14e-27 TRUE  24         3.61e7 3.61e7
 2 si:ch1073-16…  4.26  -0.244  2.77e-27 2.64e-23 TRUE  24         3.86e7 3.87e7
 3 im:7160594     1.00   3.14   1.47e-22 9.32e-19 TRUE  24         3.92e7 3.92e7
 4 dnaaf3l        2.04   0.439  4.81e-22 2.29e-18 TRUE  24         3.69e7 3.69e7
 5 mybpc2b        5.39   3.21   3.10e-17 1.18e-13 TRUE  24         3.83e7 3.83e7
 6 CU651662.1     2.62   2.03   1.43e-16 4.55e-13 TRUE  7          7.15e7 7.15e7
 7 tspan36        1.21   2.78   1.37e-13 3.73e-10 TRUE  8          2.97e7 2.97e7
 8 si:ch211-234… -0.826  4.14   3.55e-13 8.45e-10 TRUE  24         3.82e7 3.82e7
 9 cluap1        -0.613  4.54   4.46e-13 9.23e-10 TRUE  24         3.75e7 3.75e7
10 sb:cb1058      2.01   0.0176 4.84e-13 9.23e-10 TRUE  7          2.50e7 2.50e7
# ℹ 343 more rows
# ℹ 8 more variables: gene_id <chr>, gene_biotype <chr>, description <chr>,
#   entrezid <named list>, gc_content <dbl>, length <dbl>, LR <dbl>, coef <chr>

$MPSIIIB_F
# A tibble: 200 × 17
   gene_name      logFC  logCPM   PValue      FDR DE    chromosome  start    end
   <chr>          <dbl>   <dbl>    <dbl>    <dbl> <lgl> <fct>       <int>  <int>
 1 tmem14cb      -2.86   1.62   6.55e-38 1.25e-33 TRUE  24         3.61e7 3.61e7
 2 dnaaf3l        2.07   0.439  2.92e-19 2.78e-15 TRUE  24         3.69e7 3.69e7
 3 si:ch1073-16…  3.08  -0.244  9.15e-19 5.82e-15 TRUE  24         3.86e7 3.87e7
 4 cluap1        -0.619  4.54   4.56e-14 2.17e-10 TRUE  24         3.75e7 3.75e7
 5 mybphb        -1.72   1.98   6.77e-14 2.58e-10 TRUE  6          5.50e7 5.51e7
 6 c7b           -1.60   4.77   8.06e-13 2.56e- 9 TRUE  21         2.09e7 2.09e7
 7 plp1a         -1.20   4.65   1.37e-12 3.74e- 9 TRUE  14         1.46e7 1.46e7
 8 sb:cb1058      2.20   0.0176 7.54e-12 1.80e- 8 TRUE  7          2.50e7 2.50e7
 9 bri3           0.672  5.53   1.32e-11 2.79e- 8 TRUE  3          6.14e7 6.14e7
10 gpd1c          1.43   1.56   1.75e-11 3.33e- 8 TRUE  19         3.18e5 3.26e5
# ℹ 190 more rows
# ℹ 8 more variables: gene_id <chr>, gene_biotype <chr>, description <chr>,
#   entrezid <named list>, gc_content <dbl>, length <dbl>, LR <dbl>, coef <chr>
…
