analysis
…
$MPSIIIB
# A tibble: 26 × 8
   pathway NGenes Direction PValue   FDR PValue.Mixed     FDR.Mixed coef   
   <chr>    <int> <chr>      <dbl> <dbl>        <dbl>         <dbl> <chr>  
 1 24         615 Up        0.258  0.280     2.44e-10 0.00000000634 MPSIIIB
 2 25         665 Up        0.0147 0.179     3.25e- 3 0.0423        MPSIIIB
 3 8          939 Up        0.115  0.179     1.40e- 1 0.508         MPSIIIB
 4 5         1219 Up        0.0729 0.179     1.75e- 1 0.508         MPSIIIB
 5 17         819 Up        0.115  0.179     1.81e- 1 0.508         MPSIIIB
 6 14         763 Up        0.122  0.179     1.94e- 1 0.508         MPSIIIB
 7 3         1176 Up        0.166  0.188     2.12e- 1 0.508         MPSIIIB
 8 15         825 Up        0.101  0.179     2.36e- 1 0.508         MPSIIIB
 9 12         770 Up        0.160  0.188     2.36e- 1 0.508         MPSIIIB
10 11         734 Up        0.138  0.179     2.41e- 1 0.508         MPSIIIB
# ℹ 16 more rows

$EOfADlike
# A tibble: 26 × 8
   pathway NGenes Direction PValue   FDR PValue.Mixed FDR.Mixed coef     
   <chr>    <int> <chr>      <dbl> <dbl>        <dbl>     <dbl> <chr>    
 1 17         819 Up         0.781 0.846        0.226     0.986 EOfADlike
 2 18         697 Up         0.557 0.752        0.473     0.986 EOfADlike
 3 9          817 Up         0.474 0.752        0.513     0.986 EOfADlike
 4 25         665 Up         0.237 0.752        0.548     0.986 EOfADlike
 5 23         834 Up         0.613 0.752        0.643     0.986 EOfADlike
 6 2         1055 Up         0.577 0.752        0.661     0.986 EOfADlike
 7 3         1176 Up         0.631 0.752        0.696     0.986 EOfADlike
 8 4         1084 Down       0.986 0.990        0.799     0.986 EOfADlike
 9 8          939 Up         0.689 0.779        0.874     0.986 EOfADlike
10 14         763 Up         0.636 0.752        0.874     0.986 EOfADlike
# ℹ 16 more rows
…
