proteomics
…
axis.nafegmales <- 
  manhat.input.naglu.females %>%
  group_by(chr) %>%
  dplyr::arrange(chr) %>% 
  summarize(center = (max(midCum) + min(midCum)) / 2) %>% 
  mutate(
    seqnames = as.numeric(chr),
    colour = rep(c("grey40", "black"), length.out = 25)
  )

fry.chr$`MPSIIIB_F - wt_F`

# A tibble: 25 × 8
   pathway NGenes Direction   PValue    FDR PValue.Mixed FDR.Mixed coef         
   <chr>    <int> <chr>        <dbl>  <dbl>        <dbl>     <dbl> <chr>        
 1 15         280 Down      0.000428 0.0107    0.0000456  0.000285 MPSIIIB_F - …
 2 13         325 Up        0.00569  0.0711    0.0000151  0.000126 MPSIIIB_F - …
 3 5          495 Up        0.00896  0.0747    0.0000613  0.000306 MPSIIIB_F - …
 4 1          364 Up        0.0199   0.124     0.000884   0.00276  MPSIIIB_F - …
 5 17         289 Up        0.0354   0.163     0.170      0.177    MPSIIIB_F - …
 6 25         246 Up        0.0392   0.163     0.0709     0.0844   MPSIIIB_F - …
 7 16         371 Up        0.0636   0.227     0.000460   0.00164  MPSIIIB_F - …
 8 2          400 Up        0.142    0.388     0.000180   0.000751 MPSIIIB_F - …
 9 7          414 Up        0.143    0.388     0.0472     0.0635   MPSIIIB_F - …
10 21         312 Up        0.155    0.388     0.00452    0.0125   MPSIIIB_F - …
# ℹ 15 more rows
…
